Classe,Sexo,Idade,Sobreviveu,Selected
continuous,discrete,discrete,discrete,discrete
,,,class,meta
1.0,Feminino,29,Sim,No
1.0,Masculino,"0,9167",Sim,No
1.0,Feminino,2,Não,No
1.0,Masculino,30,Não,No
1.0,Feminino,25,Não,No
1.0,Masculino,48,Sim,No
1.0,Feminino,63,Sim,No
1.0,Masculino,39,Não,No
1.0,Feminino,53,Sim,No
1.0,Masculino,71,Não,No
1.0,Masculino,47,Não,No
1.0,Feminino,18,Sim,No
1.0,Feminino,24,Sim,No
1.0,Feminino,26,Sim,No
1.0,Masculino,80,Sim,No
1.0,Masculino,24,Não,No
1.0,Feminino,50,Sim,No
1.0,Feminino,32,Sim,No
1.0,Masculino,36,Não,No
1.0,Masculino,37,Sim,No
1.0,Feminino,47,Sim,No
1.0,Masculino,26,Sim,No
1.0,Feminino,42,Sim,No
1.0,Feminino,29,Sim,No
1.0,Masculino,25,Não,No
1.0,Masculino,25,Sim,No
1.0,Feminino,19,Sim,No
1.0,Feminino,35,Sim,No
1.0,Masculino,28,Sim,No
1.0,Masculino,45,Não,No
1.0,Masculino,40,Sim,No
1.0,Feminino,30,Sim,No
1.0,Feminino,58,Sim,No
1.0,Masculino,42,Não,No
1.0,Feminino,45,Sim,No
1.0,Feminino,22,Sim,No
1.0,Masculino,41,Não,No
1.0,Masculino,48,Não,No
1.0,Feminino,44,Sim,No
1.0,Feminino,59,Sim,No
1.0,Feminino,60,Sim,No
1.0,Feminino,41,Sim,No
1.0,Masculino,45,Não,No
1.0,Masculino,42,Sim,No
1.0,Feminino,53,Sim,No
1.0,Masculino,36,Sim,No
1.0,Feminino,58,Sim,No
1.0,Masculino,33,Não,No
1.0,Masculino,28,Não,No
1.0,Masculino,17,Não,No
1.0,Masculino,11,Sim,No
1.0,Feminino,14,Sim,No
1.0,Masculino,36,Sim,No
1.0,Feminino,36,Sim,No
1.0,Masculino,49,Não,No
1.0,Masculino,36,Não,No
1.0,Feminino,76,Sim,No
1.0,Masculino,46,Não,No
1.0,Feminino,47,Sim,No
1.0,Masculino,27,Sim,No
1.0,Feminino,33,Sim,No
1.0,Feminino,36,Sim,No
1.0,Feminino,30,Sim,No
1.0,Masculino,45,Sim,No
1.0,Masculino,27,Não,No
1.0,Feminino,26,Sim,No
1.0,Feminino,22,Sim,No
1.0,Masculino,47,Não,No
1.0,Feminino,39,Sim,No
1.0,Masculino,37,Não,No
1.0,Feminino,64,Sim,No
1.0,Feminino,55,Sim,No
1.0,Masculino,70,Não,No
1.0,Feminino,36,Sim,No
1.0,Feminino,64,Sim,No
1.0,Masculino,39,Não,No
1.0,Feminino,38,Sim,No
1.0,Masculino,51,Sim,No
1.0,Masculino,27,Sim,No
1.0,Feminino,33,Sim,No
1.0,Masculino,31,Não,No
1.0,Feminino,27,Sim,No
1.0,Masculino,31,Sim,No
1.0,Feminino,17,Sim,No
1.0,Masculino,53,Sim,No
1.0,Masculino,4,Sim,No
1.0,Feminino,54,Sim,No
1.0,Masculino,50,Não,No
1.0,Feminino,27,Sim,No
1.0,Feminino,48,Sim,No
1.0,Feminino,48,Sim,No
1.0,Masculino,49,Sim,No
1.0,Masculino,39,Não,No
1.0,Feminino,23,Sim,No
1.0,Feminino,38,Sim,No
1.0,Feminino,54,Sim,No
1.0,Feminino,36,Não,No
1.0,Masculino,36,Sim,No
1.0,Masculino,30,Não,No
1.0,Feminino,24,Sim,No
1.0,Feminino,28,Sim,No
1.0,Feminino,23,Sim,No
1.0,Masculino,19,Não,No
1.0,Masculino,64,Não,No
1.0,Feminino,60,Sim,No
1.0,Feminino,30,Sim,No
1.0,Masculino,50,Sim,No
1.0,Masculino,43,Sim,No
1.0,Feminino,22,Sim,No
1.0,Masculino,60,Sim,No
1.0,Feminino,48,Sim,No
1.0,Masculino,37,Não,No
1.0,Feminino,35,Sim,No
1.0,Masculino,47,Não,No
1.0,Feminino,35,Sim,No
1.0,Feminino,22,Sim,No
1.0,Feminino,45,Sim,No
1.0,Masculino,24,Não,No
1.0,Masculino,49,Sim,No
1.0,Masculino,71,Não,No
1.0,Masculino,53,Sim,No
1.0,Feminino,19,Sim,No
1.0,Masculino,38,Não,No
1.0,Feminino,58,Sim,No
1.0,Masculino,23,Sim,No
1.0,Feminino,45,Sim,No
1.0,Masculino,46,Não,No
1.0,Masculino,25,Sim,No
1.0,Feminino,25,Sim,No
1.0,Masculino,48,Sim,No
1.0,Feminino,49,Sim,No
1.0,Masculino,45,Não,No
1.0,Feminino,35,Sim,No
1.0,Masculino,40,Não,No
1.0,Masculino,27,Sim,No
1.0,Feminino,24,Sim,No
1.0,Masculino,55,Não,No
1.0,Feminino,52,Sim,No
1.0,Masculino,42,Não,No
1.0,Masculino,55,Não,No
1.0,Feminino,16,Sim,No
1.0,Feminino,44,Sim,No
1.0,Feminino,51,Sim,No
1.0,Masculino,42,Não,No
1.0,Feminino,35,Sim,No
1.0,Masculino,35,Sim,No
1.0,Masculino,38,Sim,No
1.0,Feminino,35,Sim,No
1.0,Feminino,38,Sim,No
1.0,Feminino,50,Não,No
1.0,Masculino,49,Sim,No
1.0,Masculino,46,Não,No
1.0,Masculino,50,Não,No
1.0,Masculino,"32,5",Não,No
1.0,Masculino,58,Não,No
1.0,Masculino,41,Não,No
1.0,Masculino,42,Sim,No
1.0,Feminino,45,Sim,No
1.0,Feminino,39,Sim,No
1.0,Feminino,49,Sim,No
1.0,Feminino,30,Sim,No
1.0,Masculino,35,Sim,No
1.0,Masculino,42,Não,No
1.0,Feminino,55,Sim,No
1.0,Feminino,16,Sim,No
1.0,Feminino,51,Sim,No
1.0,Masculino,29,Não,No
1.0,Feminino,21,Sim,No
1.0,Masculino,30,Não,No
1.0,Feminino,58,Sim,No
1.0,Feminino,15,Sim,No
1.0,Masculino,30,Não,No
1.0,Feminino,16,Sim,No
1.0,Masculino,19,Não,No
1.0,Feminino,18,Sim,No
1.0,Feminino,24,Sim,No
1.0,Masculino,46,Não,No
1.0,Masculino,54,Não,No
1.0,Masculino,36,Sim,No
1.0,Masculino,28,Não,No
1.0,Masculino,65,Não,No
1.0,Masculino,44,Não,No
1.0,Feminino,33,Sim,No
1.0,Feminino,37,Sim,No
1.0,Masculino,30,Sim,No
1.0,Masculino,55,Não,No
1.0,Masculino,47,Não,No
1.0,Masculino,37,Não,No
1.0,Feminino,31,Sim,No
1.0,Feminino,23,Sim,No
1.0,Masculino,58,Não,No
1.0,Feminino,19,Sim,No
1.0,Masculino,64,Não,No
1.0,Feminino,39,Sim,No
1.0,Feminino,22,Sim,No
1.0,Masculino,65,Não,No
1.0,Masculino,"28,5",Não,No
1.0,Masculino,"45,5",Não,No
1.0,Masculino,23,Não,No
1.0,Masculino,29,Não,No
1.0,Feminino,22,Sim,No
1.0,Masculino,18,Não,No
1.0,Feminino,17,Sim,No
1.0,Feminino,30,Sim,No
1.0,Masculino,52,Sim,No
1.0,Masculino,47,Não,No
1.0,Feminino,56,Sim,No
1.0,Masculino,38,Não,No
1.0,Masculino,22,Não,No
1.0,Feminino,43,Sim,No
1.0,Masculino,31,Não,No
1.0,Masculino,45,Sim,No
1.0,Feminino,33,Sim,No
1.0,Masculino,46,Não,No
1.0,Masculino,36,Não,No
1.0,Feminino,33,Sim,No
1.0,Masculino,55,Não,No
1.0,Feminino,54,Sim,No
1.0,Masculino,33,Não,No
1.0,Masculino,13,Sim,No
1.0,Feminino,18,Sim,No
1.0,Feminino,21,Sim,No
1.0,Masculino,61,Não,No
1.0,Feminino,48,Sim,No
1.0,Feminino,24,Sim,No
1.0,Feminino,35,Sim,No
1.0,Feminino,30,Sim,No
1.0,Masculino,34,Sim,No
1.0,Feminino,40,Sim,No
1.0,Masculino,35,Sim,No
1.0,Masculino,50,Não,No
1.0,Feminino,39,Sim,No
1.0,Masculino,56,Sim,No
1.0,Masculino,28,Sim,No
1.0,Masculino,56,Não,No
1.0,Masculino,56,Não,No
1.0,Masculino,24,Não,No
1.0,Feminino,18,Sim,No
1.0,Masculino,24,Sim,No
1.0,Feminino,23,Sim,No
1.0,Masculino,6,Sim,No
1.0,Masculino,45,Sim,No
1.0,Feminino,40,Sim,No
1.0,Masculino,57,Não,No
1.0,Masculino,32,Sim,No
1.0,Masculino,62,Não,No
1.0,Masculino,54,Sim,No
1.0,Feminino,43,Sim,No
1.0,Feminino,52,Sim,No
1.0,Feminino,62,Sim,No
1.0,Masculino,67,Não,No
1.0,Feminino,63,Não,No
1.0,Masculino,61,Não,No
1.0,Feminino,48,Sim,No
1.0,Feminino,18,Sim,No
1.0,Masculino,52,Não,No
1.0,Feminino,39,Sim,No
1.0,Masculino,48,Sim,No
1.0,Masculino,49,Não,No
1.0,Masculino,17,Sim,No
1.0,Feminino,39,Sim,No
1.0,Masculino,31,Sim,No
1.0,Masculino,40,Não,No
1.0,Masculino,61,Não,No
1.0,Masculino,47,Não,No
1.0,Feminino,35,Sim,No
1.0,Masculino,64,Não,No
1.0,Feminino,60,Sim,No
1.0,Masculino,60,Não,No
1.0,Masculino,54,Não,No
1.0,Masculino,21,Não,No
1.0,Feminino,55,Sim,No
1.0,Feminino,31,Sim,No
1.0,Masculino,57,Não,No
1.0,Feminino,45,Sim,No
1.0,Masculino,50,Não,No
1.0,Masculino,27,Não,No
1.0,Feminino,50,Sim,No
1.0,Feminino,21,Sim,No
1.0,Masculino,51,Não,No
1.0,Masculino,21,Sim,No
1.0,Feminino,31,Sim,No
1.0,Masculino,62,Não,No
1.0,Feminino,36,Sim,No
2.0,Masculino,30,Não,No
2.0,Feminino,28,Sim,No
2.0,Masculino,30,Não,No
2.0,Masculino,18,Não,No
2.0,Masculino,25,Não,No
2.0,Masculino,34,Não,No
2.0,Feminino,36,Sim,No
2.0,Masculino,57,Não,No
2.0,Masculino,18,Não,No
2.0,Masculino,23,Não,No
2.0,Feminino,36,Sim,No
2.0,Masculino,28,Não,No
2.0,Masculino,51,Não,No
2.0,Masculino,32,Sim,No
2.0,Feminino,19,Sim,No
2.0,Masculino,28,Não,No
2.0,Masculino,1,Sim,No
2.0,Feminino,4,Sim,No
2.0,Feminino,12,Sim,No
2.0,Feminino,36,Sim,No
2.0,Masculino,34,Sim,No
2.0,Feminino,19,Sim,No
2.0,Masculino,23,Não,No
2.0,Masculino,26,Não,No
2.0,Masculino,42,Não,No
2.0,Masculino,27,Não,No
2.0,Feminino,24,Sim,No
2.0,Feminino,15,Sim,No
2.0,Masculino,60,Não,No
2.0,Feminino,40,Sim,No
2.0,Feminino,20,Sim,No
2.0,Masculino,25,Não,No
2.0,Feminino,36,Sim,No
2.0,Masculino,25,Não,No
2.0,Masculino,42,Não,No
2.0,Feminino,42,Sim,No
2.0,Masculino,"0,8333",Sim,No
2.0,Masculino,26,Sim,No
2.0,Feminino,22,Sim,No
2.0,Feminino,35,Sim,No
2.0,Masculino,19,Não,No
2.0,Feminino,44,Não,No
2.0,Masculino,54,Não,No
2.0,Masculino,52,Não,No
2.0,Masculino,37,Não,No
2.0,Feminino,29,Não,No
2.0,Feminino,25,Sim,No
2.0,Feminino,45,Sim,No
2.0,Masculino,29,Não,No
2.0,Feminino,28,Sim,No
2.0,Masculino,29,Não,No
2.0,Masculino,28,Não,No
2.0,Masculino,24,Sim,No
2.0,Feminino,8,Sim,No
2.0,Masculino,31,Não,No
2.0,Feminino,31,Sim,No
2.0,Feminino,22,Sim,No
2.0,Feminino,30,Não,No
2.0,Masculino,21,Não,No
2.0,Masculino,8,Sim,No
2.0,Masculino,18,Não,No
2.0,Feminino,48,Sim,No
2.0,Feminino,28,Sim,No
2.0,Masculino,32,Não,No
2.0,Masculino,17,Não,No
2.0,Masculino,29,Não,No
2.0,Feminino,24,Sim,No
2.0,Masculino,25,Não,No
2.0,Masculino,18,Não,No
2.0,Feminino,18,Sim,No
2.0,Feminino,34,Sim,No
2.0,Masculino,54,Não,No
2.0,Masculino,8,Sim,No
2.0,Masculino,42,Não,No
2.0,Feminino,34,Sim,No
2.0,Feminino,27,Sim,No
2.0,Feminino,30,Sim,No
2.0,Masculino,23,Não,No
2.0,Masculino,21,Não,No
2.0,Masculino,18,Não,No
2.0,Masculino,40,Não,No
2.0,Feminino,29,Sim,No
2.0,Masculino,18,Não,No
2.0,Masculino,36,Não,No
2.0,Feminino,38,Não,No
2.0,Masculino,35,Não,No
2.0,Masculino,38,Não,No
2.0,Masculino,34,Não,No
2.0,Feminino,34,Sim,No
2.0,Masculino,16,Não,No
2.0,Masculino,26,Não,No
2.0,Masculino,47,Não,No
2.0,Masculino,21,Não,No
2.0,Masculino,21,Não,No
2.0,Masculino,24,Não,No
2.0,Masculino,24,Não,No
2.0,Masculino,34,Não,No
2.0,Masculino,30,Não,No
2.0,Masculino,52,Não,No
2.0,Masculino,30,Não,No
2.0,Masculino,"0,6667",Sim,No
2.0,Feminino,24,Sim,No
2.0,Masculino,44,Não,No
2.0,Feminino,6,Sim,No
2.0,Masculino,28,Não,No
2.0,Masculino,62,Sim,No
2.0,Masculino,30,Não,No
2.0,Feminino,7,Sim,No
2.0,Masculino,43,Não,No
2.0,Feminino,45,Sim,No
2.0,Feminino,24,Sim,No
2.0,Feminino,24,Sim,No
2.0,Masculino,49,Não,No
2.0,Feminino,48,Sim,No
2.0,Feminino,55,Sim,No
2.0,Masculino,24,Não,No
2.0,Masculino,32,Não,No
2.0,Masculino,21,Não,No
2.0,Feminino,18,Não,No
2.0,Feminino,20,Sim,No
2.0,Masculino,23,Não,No
2.0,Masculino,36,Não,No
2.0,Feminino,54,Sim,No
2.0,Masculino,50,Não,No
2.0,Masculino,44,Não,No
2.0,Feminino,29,Sim,No
2.0,Masculino,21,Não,No
2.0,Masculino,42,Sim,No
2.0,Masculino,63,Não,No
2.0,Feminino,60,Não,No
2.0,Masculino,33,Não,No
2.0,Feminino,17,Sim,No
2.0,Masculino,42,Não,No
2.0,Feminino,24,Sim,No
2.0,Masculino,47,Não,No
2.0,Masculino,24,Não,No
2.0,Masculino,22,Não,No
2.0,Masculino,32,Não,No
2.0,Feminino,23,Sim,No
2.0,Masculino,34,Não,No
2.0,Feminino,24,Sim,No
2.0,Feminino,22,Não,No
2.0,Masculino,35,Não,No
2.0,Feminino,45,Sim,No
2.0,Masculino,57,Não,No
2.0,Masculino,31,Não,No
2.0,Feminino,26,Não,No
2.0,Masculino,30,Não,No
2.0,Feminino,1,Sim,No
2.0,Feminino,3,Sim,No
2.0,Masculino,25,Não,No
2.0,Feminino,22,Sim,No
2.0,Feminino,17,Sim,No
2.0,Feminino,34,Sim,No
2.0,Masculino,36,Não,No
2.0,Masculino,24,Não,No
2.0,Masculino,61,Não,No
2.0,Masculino,50,Não,No
2.0,Feminino,42,Sim,No
2.0,Feminino,57,Não,No
2.0,Masculino,1,Sim,No
2.0,Masculino,31,Não,No
2.0,Feminino,24,Sim,No
2.0,Masculino,30,Não,No
2.0,Masculino,40,Não,No
2.0,Masculino,32,Não,No
2.0,Masculino,30,Não,No
2.0,Masculino,46,Não,No
2.0,Feminino,13,Sim,No
2.0,Feminino,41,Sim,No
2.0,Masculino,19,Sim,No
2.0,Masculino,39,Não,No
2.0,Masculino,48,Não,No
2.0,Masculino,70,Não,No
2.0,Masculino,27,Não,No
2.0,Masculino,54,Não,No
2.0,Masculino,39,Não,No
2.0,Masculino,16,Não,No
2.0,Masculino,62,Não,No
2.0,Masculino,"32,5",Não,No
2.0,Feminino,14,Sim,No
2.0,Masculino,2,Sim,No
2.0,Masculino,3,Sim,No
2.0,Masculino,"36,5",Não,No
2.0,Masculino,26,Não,No
2.0,Masculino,19,Não,No
2.0,Masculino,28,Não,No
2.0,Masculino,20,Sim,No
2.0,Feminino,29,Sim,No
2.0,Masculino,39,Não,No
2.0,Masculino,22,Sim,No
2.0,Masculino,23,Não,No
2.0,Masculino,29,Sim,No
2.0,Masculino,28,Não,No
2.0,Feminino,50,Sim,No
2.0,Masculino,19,Não,No
2.0,Masculino,41,Não,No
2.0,Feminino,21,Sim,No
2.0,Feminino,19,Sim,No
2.0,Masculino,43,Não,No
2.0,Feminino,32,Sim,No
2.0,Masculino,34,Não,No
2.0,Masculino,30,Sim,No
2.0,Masculino,27,Não,No
2.0,Feminino,2,Sim,No
2.0,Feminino,8,Sim,No
2.0,Feminino,33,Sim,No
2.0,Masculino,36,Não,No
2.0,Masculino,34,Não,No
2.0,Feminino,30,Sim,No
2.0,Feminino,28,Sim,No
2.0,Masculino,23,Não,No
2.0,Masculino,"0,8333",Sim,No
2.0,Masculino,3,Sim,No
2.0,Feminino,24,Sim,No
2.0,Feminino,50,Sim,No
2.0,Masculino,19,Não,No
2.0,Feminino,21,Sim,No
2.0,Masculino,26,Não,No
2.0,Masculino,25,Não,No
2.0,Masculino,27,Não,No
2.0,Feminino,25,Sim,No
2.0,Feminino,18,Sim,No
2.0,Feminino,20,Sim,No
2.0,Feminino,30,Sim,No
2.0,Masculino,59,Não,No
2.0,Feminino,30,Sim,No
2.0,Masculino,35,Não,No
2.0,Feminino,40,Sim,No
2.0,Masculino,25,Não,No
2.0,Masculino,41,Não,No
2.0,Masculino,25,Não,No
2.0,Masculino,"18,5",Não,No
2.0,Masculino,14,Não,No
2.0,Feminino,50,Sim,No
2.0,Masculino,23,Não,No
2.0,Feminino,28,Sim,No
2.0,Feminino,27,Sim,No
2.0,Masculino,29,Não,No
2.0,Feminino,27,Não,No
2.0,Masculino,40,Não,No
2.0,Feminino,31,Sim,No
2.0,Masculino,30,Não,No
2.0,Masculino,23,Não,No
2.0,Feminino,31,Sim,No
2.0,Feminino,12,Sim,No
2.0,Feminino,40,Sim,No
2.0,Feminino,"32,5",Sim,No
2.0,Masculino,27,Não,No
2.0,Feminino,29,Sim,No
2.0,Masculino,2,Sim,No
2.0,Feminino,4,Sim,No
2.0,Feminino,29,Sim,No
2.0,Feminino,"0,9167",Sim,No
2.0,Feminino,5,Sim,No
2.0,Masculino,36,Não,No
2.0,Feminino,33,Sim,No
2.0,Masculino,66,Não,No
2.0,Masculino,31,Sim,No
2.0,Feminino,26,Sim,No
2.0,Feminino,24,Não,No
3.0,Masculino,42,Não,No
3.0,Masculino,13,Não,No
3.0,Masculino,16,Não,No
3.0,Feminino,35,Sim,No
3.0,Feminino,16,Sim,No
3.0,Masculino,25,Sim,No
3.0,Masculino,20,Sim,No
3.0,Feminino,18,Sim,No
3.0,Masculino,30,Não,No
3.0,Masculino,26,Não,No
3.0,Feminino,40,Não,No
3.0,Masculino,"0,8333",Sim,No
3.0,Feminino,18,Sim,No
3.0,Masculino,26,Sim,No
3.0,Masculino,26,Não,No
3.0,Masculino,20,Não,No
3.0,Masculino,24,Não,No
3.0,Masculino,25,Não,No
3.0,Masculino,35,Não,No
3.0,Masculino,18,Não,No
3.0,Masculino,32,Não,No
3.0,Feminino,19,Sim,No
3.0,Masculino,4,Não,No
3.0,Feminino,6,Não,No
3.0,Feminino,2,Não,No
3.0,Feminino,17,Sim,No
3.0,Feminino,38,Não,No
3.0,Feminino,9,Não,No
3.0,Feminino,11,Não,No
3.0,Masculino,39,Não,No
3.0,Masculino,27,Sim,No
3.0,Masculino,26,Não,No
3.0,Feminino,39,Não,No
3.0,Masculino,20,Não,No
3.0,Masculino,26,Não,No
3.0,Masculino,25,Não,No
3.0,Feminino,18,Não,No
3.0,Masculino,24,Não,No
3.0,Masculino,35,Não,No
3.0,Masculino,5,Não,No
3.0,Masculino,9,Não,No
3.0,Masculino,3,Sim,No
3.0,Masculino,13,Não,No
3.0,Feminino,5,Sim,No
3.0,Masculino,40,Não,No
3.0,Masculino,23,Sim,No
3.0,Feminino,38,Sim,No
3.0,Feminino,45,Sim,No
3.0,Masculino,21,Não,No
3.0,Masculino,23,Não,No
3.0,Feminino,17,Não,No
3.0,Masculino,30,Não,No
3.0,Masculino,23,Não,No
3.0,Feminino,13,Sim,No
3.0,Masculino,20,Não,No
3.0,Masculino,32,Não,No
3.0,Feminino,33,Sim,No
3.0,Feminino,"0,75",Sim,No
3.0,Feminino,"0,75",Sim,No
3.0,Feminino,5,Sim,No
3.0,Feminino,24,Sim,No
3.0,Feminino,18,Sim,No
3.0,Masculino,40,Não,No
3.0,Masculino,26,Não,No
3.0,Masculino,20,Sim,No
3.0,Feminino,18,Não,No
3.0,Feminino,45,Não,No
3.0,Feminino,27,Não,No
3.0,Masculino,22,Não,No
3.0,Masculino,19,Não,No
3.0,Masculino,26,Não,No
3.0,Masculino,22,Não,No
3.0,Masculino,20,Não,No
3.0,Masculino,32,Sim,No
3.0,Masculino,21,Não,No
3.0,Masculino,18,Não,No
3.0,Masculino,26,Não,No
3.0,Masculino,6,Não,No
3.0,Feminino,9,Não,No
3.0,Masculino,40,Não,No
3.0,Feminino,32,Não,No
3.0,Masculino,21,Não,No
3.0,Feminino,22,Sim,No
3.0,Feminino,20,Não,No
3.0,Masculino,29,Não,No
3.0,Masculino,22,Não,No
3.0,Masculino,22,Não,No
3.0,Masculino,35,Não,No
3.0,Feminino,"18,5",Não,No
3.0,Masculino,21,Sim,No
3.0,Masculino,19,Não,No
3.0,Feminino,18,Não,No
3.0,Feminino,21,Não,No
3.0,Feminino,30,Não,No
3.0,Masculino,18,Não,No
3.0,Masculino,38,Não,No
3.0,Masculino,17,Não,No
3.0,Masculino,17,Não,No
3.0,Feminino,21,Não,No
3.0,Masculino,21,Não,No
3.0,Masculino,21,Não,No
3.0,Masculino,28,Não,No
3.0,Masculino,24,Não,No
3.0,Feminino,16,Sim,No
3.0,Feminino,37,Não,No
3.0,Masculino,28,Não,No
3.0,Masculino,24,Não,No
3.0,Masculino,21,Não,No
3.0,Masculino,32,Sim,No
3.0,Masculino,29,Não,No
3.0,Masculino,26,Não,No
3.0,Masculino,18,Não,No
3.0,Masculino,20,Não,No
3.0,Masculino,18,Sim,No
3.0,Masculino,24,Não,No
3.0,Masculino,36,Não,No
3.0,Masculino,24,Não,No
3.0,Masculino,31,Não,No
3.0,Masculino,31,Não,No
3.0,Feminino,22,Sim,No
3.0,Feminino,30,Não,No
3.0,Masculino,"70,5",Não,No
3.0,Masculino,43,Não,No
3.0,Masculino,35,Não,No
3.0,Masculino,27,Não,No
3.0,Masculino,19,Não,No
3.0,Masculino,30,Não,No
3.0,Masculino,9,Sim,No
3.0,Masculino,3,Sim,No
3.0,Feminino,36,Sim,No
3.0,Masculino,59,Não,No
3.0,Masculino,19,Não,No
3.0,Feminino,17,Sim,No
3.0,Masculino,44,Não,No
3.0,Masculino,17,Não,No
3.0,Masculino,"22,5",Não,No
3.0,Masculino,45,Sim,No
3.0,Feminino,22,Não,No
3.0,Masculino,19,Não,No
3.0,Feminino,30,Sim,No
3.0,Masculino,29,Sim,No
3.0,Masculino,"0,3333",Não,No
3.0,Masculino,34,Não,No
3.0,Feminino,28,Não,No
3.0,Masculino,27,Não,No
3.0,Masculino,25,Não,No
3.0,Masculino,24,Não,No
3.0,Masculino,22,Não,No
3.0,Masculino,21,Não,No
3.0,Masculino,17,Não,No
3.0,Masculino,"36,5",Sim,No
3.0,Feminino,36,Sim,No
3.0,Masculino,30,Sim,No
3.0,Masculino,16,Não,No
3.0,Masculino,1,Sim,No
3.0,Feminino,"0,1667",Sim,No
3.0,Masculino,26,Não,No
3.0,Feminino,33,Sim,No
3.0,Masculino,25,Não,No
3.0,Masculino,22,Não,No
3.0,Masculino,36,Não,No
3.0,Feminino,19,Sim,No
3.0,Masculino,17,Não,No
3.0,Masculino,42,Não,No
3.0,Masculino,43,Não,No
3.0,Masculino,32,Não,No
3.0,Masculino,19,Sim,No
3.0,Feminino,30,Sim,No
3.0,Feminino,24,Não,No
3.0,Feminino,23,Sim,No
3.0,Masculino,33,Não,No
3.0,Masculino,65,Não,No
3.0,Masculino,24,Sim,No
3.0,Masculino,23,Não,No
3.0,Feminino,22,Sim,No
3.0,Masculino,18,Não,No
3.0,Masculino,16,Não,No
3.0,Masculino,45,Não,No
3.0,Masculino,39,Não,No
3.0,Masculino,17,Não,No
3.0,Masculino,15,Não,No
3.0,Masculino,47,Não,No
3.0,Feminino,5,Sim,No
3.0,Masculino,"40,5",Não,No
3.0,Masculino,"40,5",Não,No
3.0,Masculino,18,Não,No
3.0,Masculino,26,Não,No
3.0,Feminino,21,Não,No
3.0,Feminino,9,Não,No
3.0,Masculino,18,Não,No
3.0,Masculino,16,Não,No
3.0,Feminino,48,Não,No
3.0,Masculino,25,Não,No
3.0,Masculino,22,Não,No
3.0,Feminino,16,Sim,No
3.0,Masculino,9,Sim,No
3.0,Masculino,33,Não,No
3.0,Masculino,41,Não,No
3.0,Feminino,31,Sim,No
3.0,Masculino,38,Não,No
3.0,Masculino,9,Não,No
3.0,Masculino,1,Não,No
3.0,Masculino,11,Não,No
3.0,Feminino,10,Não,No
3.0,Feminino,16,Não,No
3.0,Masculino,14,Não,No
3.0,Masculino,40,Não,No
3.0,Feminino,43,Não,No
3.0,Masculino,51,Não,No
3.0,Masculino,32,Não,No
3.0,Masculino,20,Não,No
3.0,Masculino,37,Não,No
3.0,Masculino,28,Não,No
3.0,Masculino,19,Não,No
3.0,Feminino,24,Não,No
3.0,Feminino,17,Não,No
3.0,Masculino,28,Não,No
3.0,Feminino,24,Sim,No
3.0,Masculino,20,Não,No
3.0,Masculino,"23,5",Não,No
3.0,Masculino,41,Não,No
3.0,Masculino,26,Não,No
3.0,Masculino,21,Não,No
3.0,Feminino,45,Sim,No
3.0,Masculino,25,Não,No
3.0,Masculino,11,Não,No
3.0,Masculino,27,Sim,No
3.0,Feminino,18,Não,No
3.0,Feminino,26,Sim,No
3.0,Feminino,23,Não,No
3.0,Feminino,22,Sim,No
3.0,Masculino,28,Não,No
3.0,Feminino,28,Não,No
3.0,Feminino,2,Sim,No
3.0,Feminino,22,Sim,No
3.0,Masculino,43,Não,No
3.0,Masculino,28,Não,No
3.0,Feminino,27,Sim,No
3.0,Masculino,42,Não,No
3.0,Masculino,30,Não,No
3.0,Feminino,27,Não,No
3.0,Feminino,25,Não,No
3.0,Masculino,29,Sim,No
3.0,Masculino,21,Sim,No
3.0,Masculino,20,Não,No
3.0,Masculino,48,Não,No
3.0,Masculino,17,Não,No
3.0,Masculino,34,Não,No
3.0,Masculino,26,Sim,No
3.0,Masculino,22,Não,No
3.0,Masculino,33,Não,No
3.0,Masculino,31,Não,No
3.0,Masculino,29,Não,No
3.0,Masculino,4,Sim,No
3.0,Feminino,1,Sim,No
3.0,Masculino,49,Não,No
3.0,Masculino,33,Não,No
3.0,Masculino,19,Não,No
3.0,Feminino,27,Sim,No
3.0,Masculino,23,Não,No
3.0,Masculino,32,Sim,No
3.0,Masculino,27,Não,No
3.0,Feminino,20,Não,No
3.0,Feminino,21,Não,No
3.0,Masculino,32,Sim,No
3.0,Masculino,17,Não,No
3.0,Masculino,21,Não,No
3.0,Masculino,30,Não,No
3.0,Masculino,21,Sim,No
3.0,Masculino,33,Não,No
3.0,Masculino,22,Não,No
3.0,Feminino,4,Sim,No
3.0,Masculino,39,Sim,No
3.0,Masculino,"18,5",Não,No
3.0,Masculino,"34,5",Não,No
3.0,Masculino,44,Não,No
3.0,Feminino,22,Não,No
3.0,Masculino,26,Não,No
3.0,Feminino,4,Sim,No
3.0,Masculino,29,Sim,No
3.0,Feminino,26,Sim,No
3.0,Feminino,1,Não,No
3.0,Masculino,18,Não,No
3.0,Feminino,36,Não,No
3.0,Masculino,25,Sim,No
3.0,Feminino,37,Não,No
3.0,Feminino,22,Sim,No
3.0,Masculino,26,Sim,No
3.0,Masculino,29,Não,No
3.0,Masculino,29,Não,No
3.0,Masculino,22,Não,No
3.0,Masculino,22,Sim,No
3.0,Masculino,32,Não,No
3.0,Masculino,"34,5",Não,No
3.0,Masculino,36,Não,No
3.0,Masculino,39,Não,No
3.0,Masculino,24,Não,No
3.0,Feminino,25,Não,No
3.0,Feminino,45,Não,No
3.0,Masculino,36,Não,No
3.0,Feminino,30,Não,No
3.0,Masculino,20,Sim,No
3.0,Masculino,28,Não,No
3.0,Masculino,30,Não,No
3.0,Feminino,26,Não,No
3.0,Masculino,"20,5",Não,No
3.0,Masculino,27,Sim,No
3.0,Masculino,51,Não,No
3.0,Feminino,23,Sim,No
3.0,Masculino,32,Sim,No
3.0,Masculino,24,Sim,No
3.0,Masculino,22,Não,No
3.0,Masculino,29,Não,No
3.0,Feminino,"30,5",Não,No
3.0,Masculino,35,Não,No
3.0,Masculino,33,Não,No
3.0,Feminino,15,Sim,No
3.0,Feminino,35,Não,No
3.0,Masculino,24,Não,No
3.0,Feminino,19,Não,No
3.0,Masculino,"55,5",Não,No
3.0,Masculino,21,Sim,No
3.0,Masculino,24,Não,No
3.0,Masculino,21,Não,No
3.0,Masculino,28,Não,No
3.0,Masculino,25,Não,No
3.0,Masculino,6,Sim,No
3.0,Feminino,27,Sim,No
3.0,Masculino,34,Não,No
3.0,Feminino,24,Sim,No
3.0,Masculino,18,Não,No
3.0,Masculino,22,Não,No
3.0,Feminino,15,Sim,No
3.0,Feminino,1,Sim,No
3.0,Masculino,20,Sim,No
3.0,Feminino,19,Sim,No
3.0,Masculino,33,Não,No
3.0,Masculino,12,Sim,No
3.0,Feminino,14,Sim,No
3.0,Feminino,29,Não,No
3.0,Masculino,28,Não,No
3.0,Feminino,18,Sim,No
3.0,Feminino,26,Sim,No
3.0,Masculino,21,Não,No
3.0,Masculino,41,Não,No
3.0,Masculino,39,Sim,No
3.0,Masculino,21,Não,No
3.0,Masculino,"28,5",Não,No
3.0,Feminino,22,Sim,No
3.0,Masculino,61,Não,No
3.0,Masculino,23,Não,No
3.0,Feminino,22,Sim,No
3.0,Masculino,9,Sim,No
3.0,Masculino,28,Não,No
3.0,Masculino,42,Não,No
3.0,Feminino,31,Não,No
3.0,Masculino,28,Não,No
3.0,Masculino,32,Sim,No
3.0,Masculino,20,Não,No
3.0,Feminino,23,Não,No
3.0,Feminino,20,Não,No
3.0,Masculino,20,Não,No
3.0,Masculino,16,Não,No
3.0,Feminino,31,Sim,No
3.0,Masculino,2,Não,No
3.0,Masculino,6,Não,No
3.0,Feminino,3,Não,No
3.0,Feminino,8,Não,No
3.0,Feminino,29,Não,No
3.0,Masculino,1,Não,No
3.0,Masculino,7,Não,No
3.0,Masculino,2,Não,No
3.0,Masculino,16,Não,No
3.0,Masculino,14,Não,No
3.0,Feminino,41,Não,No
3.0,Masculino,21,Não,No
3.0,Masculino,19,Não,No
3.0,Masculino,32,Não,No
3.0,Masculino,"0,75",Não,No
3.0,Feminino,3,Não,No
3.0,Feminino,26,Não,No
3.0,Masculino,21,Não,No
3.0,Masculino,25,Não,No
3.0,Masculino,22,Não,No
3.0,Masculino,25,Sim,No
3.0,Masculino,24,Não,No
3.0,Feminino,28,Não,No
3.0,Masculino,19,Não,No
3.0,Masculino,25,Não,No
3.0,Feminino,18,Não,No
3.0,Masculino,32,Sim,No
3.0,Masculino,17,Não,No
3.0,Masculino,24,Não,No
3.0,Masculino,38,Não,No
3.0,Masculino,21,Não,No
3.0,Masculino,10,Não,No
3.0,Masculino,4,Não,No
3.0,Masculino,7,Não,No
3.0,Masculino,2,Não,No
3.0,Masculino,8,Não,No
3.0,Feminino,39,Não,No
3.0,Feminino,22,Não,No
3.0,Masculino,35,Não,No
3.0,Masculino,50,Não,No
3.0,Feminino,47,Não,No
3.0,Feminino,2,Não,No
3.0,Masculino,18,Não,No
3.0,Feminino,41,Não,No
3.0,Masculino,50,Não,No
3.0,Masculino,16,Não,No
3.0,Masculino,25,Não,No
3.0,Masculino,"38,5",Não,No
3.0,Masculino,"14,5",Não,No
3.0,Masculino,24,Não,No
3.0,Feminino,21,Sim,No
3.0,Masculino,39,Não,No
3.0,Feminino,1,Sim,No
3.0,Feminino,24,Sim,No
3.0,Feminino,4,Sim,No
3.0,Masculino,25,Sim,No
3.0,Masculino,20,Não,No
3.0,Masculino,"24,5",Não,No
3.0,Masculino,29,Sim,No
3.0,Masculino,22,Não,No
3.0,Masculino,40,Não,No
3.0,Masculino,21,Não,No
3.0,Feminino,18,Sim,No
3.0,Masculino,4,Não,No
3.0,Masculino,10,Não,No
3.0,Feminino,9,Não,No
3.0,Feminino,2,Não,No
3.0,Masculino,40,Não,No
3.0,Feminino,45,Não,No
3.0,Masculino,19,Não,No
3.0,Masculino,30,Não,No
3.0,Masculino,32,Não,No
3.0,Masculino,33,Não,No
3.0,Feminino,23,Sim,No
3.0,Masculino,21,Não,No
3.0,Masculino,"60,5",Não,No
3.0,Masculino,19,Não,No
3.0,Feminino,22,Não,No
3.0,Masculino,31,Sim,No
3.0,Masculino,27,Não,No
3.0,Feminino,2,Não,No
3.0,Feminino,29,Não,No
3.0,Masculino,16,Sim,No
3.0,Masculino,44,Sim,No
3.0,Masculino,25,Não,No
3.0,Masculino,74,Não,No
3.0,Masculino,14,Sim,No
3.0,Masculino,24,Não,No
3.0,Masculino,25,Sim,No
3.0,Masculino,34,Não,No
3.0,Masculino,"0,4167",Sim,No
3.0,Feminino,16,Sim,No
3.0,Masculino,32,Não,No
3.0,Masculino,"30,5",Não,No
3.0,Masculino,44,Não,No
3.0,Masculino,25,Sim,No
3.0,Masculino,7,Sim,No
3.0,Feminino,9,Sim,No
3.0,Feminino,29,Sim,No
3.0,Masculino,36,Não,No
3.0,Feminino,18,Sim,No
3.0,Feminino,63,Sim,No
3.0,Masculino,"11,5",Não,No
3.0,Masculino,"40,5",Não,No
3.0,Feminino,10,Não,No
3.0,Masculino,36,Não,No
3.0,Feminino,30,Não,No
3.0,Masculino,33,Não,No
3.0,Masculino,28,Não,No
3.0,Masculino,28,Não,No
3.0,Masculino,47,Não,No
3.0,Feminino,18,Não,No
3.0,Masculino,31,Não,No
3.0,Masculino,16,Não,No
3.0,Feminino,31,Não,No
3.0,Masculino,22,Sim,No
3.0,Masculino,20,Não,No
3.0,Feminino,14,Não,No
3.0,Masculino,22,Não,No
3.0,Masculino,22,Não,No
3.0,Masculino,"32,5",Não,No
3.0,Feminino,38,Sim,No
3.0,Masculino,51,Não,No
3.0,Masculino,18,Não,No
3.0,Masculino,21,Não,No
3.0,Feminino,47,Sim,No
3.0,Masculino,"28,5",Não,No
3.0,Masculino,21,Não,No
3.0,Masculino,27,Não,No
3.0,Masculino,36,Não,No
3.0,Masculino,27,Não,No
3.0,Feminino,15,Sim,No
3.0,Masculino,"45,5",Não,No
3.0,Feminino,"14,5",Não,No
3.0,Masculino,"26,5",Não,No
3.0,Masculino,27,Não,No
3.0,Masculino,29,Não,No
